``` r
# Importing the data set 
library(readxl)
state<-read_excel("STATE_ED_1997_corrected.xlsx")
state
```

    ## # A tibble: 50 × 10
    ##    STATE REGION Total_Public_School_…¹ Pupils_per_Teacher Average_Annual_Salar…²
    ##    <chr>  <dbl>                  <dbl>              <dbl>                  <dbl>
    ##  1 Conn…      1                 517935               14.4                  50426
    ##  2 Maine      1                 213569               13.9                  33800
    ##  3 Mass…      1                 915007               14.6                  43806
    ##  4 New …      1                 194171               15.7                  36867
    ##  5 New …      1                1197381               13.8                  49349
    ##  6 New …      1                2813230               15.5                  49560
    ##  7 Penn…      1                1787533               17                    47429
    ##  8 Rhod…      1                 149799               14.3                  43019
    ##  9 Verm…      1                 105565               13.8                  37200
    ## 10 Illi…      2                1943623               17.1                  42679
    ## # ℹ 40 more rows
    ## # ℹ abbreviated names: ¹​Total_Public_School_Enrollment,
    ## #   ²​Average_Annual_Salary_for_Public
    ## # ℹ 5 more variables: Expenditure_per_Pupil <dbl>,
    ## #   Graduates_as_percentage_of_fall_ <dbl>, Average_SAT_verbal_in_1997 <dbl>,
    ## #   Average_SAT_math_in_1997 <dbl>, Percentage_of_Eligible_Students_ <dbl>
…
